<svg xmlns="http://www.w3.org/2000/svg" width="11" height="35.2" viewBox="0 0 11 35.2">
  <g id="info" transform="translate(-176)">
    <path id="Path_2150" data-name="Path 2150" d="M181.5,214a5.506,5.506,0,0,1-5.5-5.5v-11a5.5,5.5,0,0,1,11,0v11A5.506,5.506,0,0,1,181.5,214Zm0-19.8a3.3,3.3,0,0,0-3.3,3.3v11a3.3,3.3,0,0,0,6.6,0v-11A3.3,3.3,0,0,0,181.5,194.2Z" transform="translate(0 -178.8)" fill="#fff"/>
    <path id="Path_2151" data-name="Path 2151" d="M181.5,11A5.5,5.5,0,1,1,187,5.5,5.506,5.506,0,0,1,181.5,11Zm0-8.8a3.3,3.3,0,1,0,3.3,3.3A3.3,3.3,0,0,0,181.5,2.2Z" transform="translate(0 0)" fill="#fff"/>
  </g>
</svg>
