<svg xmlns="http://www.w3.org/2000/svg" width="32.411" height="33" viewBox="0 0 32.411 33">
  <g id="directory" transform="translate(-40 -38)">
    <path id="Path_2073" data-name="Path 2073" d="M130.516,63.017a.589.589,0,0,0,.833,0l.417-.417.417.417a.589.589,0,1,0,.833-.833l-.417-.417.417-.417a.589.589,0,0,0-.833-.833l-.417.417-.417-.417a.589.589,0,1,0-.833.833l.417.417-.417.417A.589.589,0,0,0,130.516,63.017Z" transform="translate(-77.034 -19.053)" fill="#051db9"/>
    <circle id="Ellipse_3" data-name="Ellipse 3" cx="0.5" cy="0.5" r="0.5" transform="translate(60 44)" fill="#051db9"/>
    <circle id="Ellipse_4" data-name="Ellipse 4" cx="0.5" cy="0.5" r="0.5" transform="translate(59 38)" fill="#051db9"/>
    <path id="Path_2074" data-name="Path 2074" d="M118.642,141.536l-2.392.035v-2.428A1.144,1.144,0,0,0,115.107,138h-2.427a1.144,1.144,0,0,0-1.144,1.143l.035,2.393h-2.427A1.144,1.144,0,0,0,108,142.679v2.428a1.144,1.144,0,0,0,1.143,1.143l2.393-.035v2.428a1.144,1.144,0,0,0,1.144,1.143h2.427a1.144,1.144,0,0,0,1.144-1.143l-.035-2.393h2.427a1.144,1.144,0,0,0,1.144-1.143v-2.428A1.145,1.145,0,0,0,118.642,141.536Zm-2.427,3.536a1.144,1.144,0,0,0-1.144,1.143l.035,2.393-2.392.035v-2.428a1.144,1.144,0,0,0-1.144-1.143l-2.392.035-.035-2.393h2.428a1.144,1.144,0,0,0,1.144-1.143l-.035-2.392,2.392-.035v2.428a1.144,1.144,0,0,0,1.144,1.143h2.393l.034,2.357Z" transform="translate(-57.982 -85.268)" fill="#051db9"/>
    <path id="Path_2075" data-name="Path 2075" d="M69.464,81.323H52.619l-1.147-2.379a.577.577,0,0,0-.055-.092,2.712,2.712,0,0,0-2.187-1.1H42.665A2.645,2.645,0,0,0,40,80.368v20.014a2.756,2.756,0,0,0,2.433,2.708,2.362,2.362,0,0,0,2.281,1.8H68.286a2.356,2.356,0,0,0,2.316-1.952,2.744,2.744,0,0,0,1.809-2.559V84.269A2.95,2.95,0,0,0,69.464,81.323Zm1.768,19.06a1.592,1.592,0,0,1-1.614,1.565H48.951a.589.589,0,0,0,0,1.179H69.3a1.175,1.175,0,0,1-1.015.589H44.714a1.183,1.183,0,0,1-1.018-.589h2.212a.589.589,0,0,0,0-1.179H42.792a1.592,1.592,0,0,1-1.614-1.565V80.368a1.465,1.465,0,0,1,1.486-1.44h6.566a1.532,1.532,0,0,1,1.205.58l.875,1.814H48.25a.589.589,0,0,0,0,1.179H69.464a1.77,1.77,0,0,1,1.768,1.768Z" transform="translate(0 -33.894)" fill="#051db9"/>
  </g>
</svg>
